<?xml version="1.0" encoding="UTF-8" standalone="no"?>
<svg
   xmlns:dc="http://purl.org/dc/elements/1.1/"
   xmlns:cc="http://creativecommons.org/ns#"
   xmlns:rdf="http://www.w3.org/1999/02/22-rdf-syntax-ns#"
   xmlns:svg="http://www.w3.org/2000/svg"
   xmlns="http://www.w3.org/2000/svg"
   xmlns:sodipodi="http://sodipodi.sourceforge.net/DTD/sodipodi-0.dtd"
   xmlns:inkscape="http://www.inkscape.org/namespaces/inkscape"
   inkscape:version="1.0alpha (c523de1, 2019-03-31)"
   sodipodi:docname="feComposite-icon-symbolic.svg"
   viewBox="0 0 16 16"
   height="16"
   width="16"
   id="svg1"
   version="1.1">
  <style
     id="style100"></style>
  <defs
     id="defs36" />
  <sodipodi:namedview
     inkscape:current-layer="layercompo"
     inkscape:window-maximized="1"
     inkscape:window-height="745"
     inkscape:window-width="1366"
     inkscape:snap-global="false"
     inkscape:document-rotation="0"
     inkscape:window-y="-8"
     inkscape:window-x="-8"
     inkscape:cy="11.726654"
     inkscape:cx="30.37842"
     inkscape:zoom="11.939454"
     showgrid="true"
     id="namedview"
     guidetolerance="10"
     gridtolerance="10"
     objecttolerance="10">
    <inkscape:grid
       id="grid"
       type="xygrid" />
  </sodipodi:namedview>
  <metadata
     id="metadata1906">
    <rdf:RDF>
      <cc:Work
         rdf:about="">
        <dc:format>image/svg+xml</dc:format>
        <dc:type
           rdf:resource="http://purl.org/dc/dcmitype/StillImage" />
        <cc:license
           rdf:resource="http://creativecommons.org/publicdomain/zero/1.0/" />
        <dc:title></dc:title>
        <dc:date>13 Nov 2018</dc:date>
        <dc:creator>
          <cc:Agent>
            <dc:title>Ramón Miranda</dc:title>
          </cc:Agent>
        </dc:creator>
        <dc:rights>
          <cc:Agent>
            <dc:title>see the license tab</dc:title>
          </cc:Agent>
        </dc:rights>
        <dc:subject>
          <rdf:Bag>
            <rdf:li>icon ui</rdf:li>
          </rdf:Bag>
        </dc:subject>
        <dc:description>This is a little contribution with Inkscape Project
Ramon Miranda  www.ramonmiranda.com (design and SVG file)
Jabiertxo (SVG stuff to integrate them in UI)</dc:description>
        <dc:publisher>
          <cc:Agent>
            <dc:title />
          </cc:Agent>
        </dc:publisher>
        <dc:identifier />
        <dc:source />
        <dc:relation />
        <dc:language>-</dc:language>
        <dc:coverage />
        <dc:contributor>
          <cc:Agent>
            <dc:title>Ramon Miranda
Jabier Arraiza</dc:title>
          </cc:Agent>
        </dc:contributor>
      </cc:Work>
      <cc:License
         rdf:about="http://creativecommons.org/publicdomain/zero/1.0/">
        <cc:permits
           rdf:resource="http://creativecommons.org/ns#Reproduction" />
        <cc:permits
           rdf:resource="http://creativecommons.org/ns#Distribution" />
        <cc:permits
           rdf:resource="http://creativecommons.org/ns#DerivativeWorks" />
      </cc:License>
    </rdf:RDF>
  </metadata>
  <g
     inkscape:label="feBlend"
     id="layercompo"
     inkscape:groupmode="layer">
    <path
       style="opacity:0;fill:none"
       d="M 0,0 H 16 V 16 H 0 Z"
       id="rect22048" />
    <path
       inkscape:connector-curvature="0"
       id="path7013"
       d="M 5.6279294,8.1690392 C 5.3475139,8.0355802 5.2258943,7.7113842 5.2525087,7.1683012 c 0.025718,-0.524697 0.1983889,-1.102545 0.4663188,-1.560508 0.1435654,-0.245392 0.1407588,-0.244767 0.2575867,-0.05732 0.4314833,0.692284 0.62825,1.730351 0.4289574,2.26301 -0.060067,0.160534 -0.1245013,0.250222 -0.2361473,0.328687 -0.082205,0.05778 -0.1166225,0.06734 -0.2627001,0.07297 -0.1406767,0.0054 -0.186136,-0.0021 -0.2785948,-0.0461 z"
       style="opacity:0.3;fill:#000000" />
    <path
       id="path6681"
       d="M 5.1419485,13.7683 C 3.1581956,13.625827 1.8131317,12.679767 2.0665017,11.605159 2.2336353,10.896311 3.0888943,10.309488 4.3098949,10.065897 4.8198658,9.9641567 5.040454,9.9445647 5.6611879,9.9458787 c 0.6101306,0.0013 0.8974189,0.02875 1.3589802,0.1298753 0.132613,0.02905 0.2657736,0.05696 0.2959064,0.062 l 0.054803,0.0092 -0.057432,0.003 c -0.031584,0.0016 -0.1598091,0.03313 -0.2849471,0.06996 -1.0507935,0.309345 -1.6803715,0.758218 -1.8736128,1.335841 -0.057596,0.172156 -0.052448,0.449764 0.011781,0.635653 0.1919476,0.555501 0.8676831,1.030731 1.8535015,1.303528 0.1205585,0.03336 0.2269268,0.06771 0.2363801,0.07634 0.00945,0.0086 -0.079323,0.03725 -0.1972732,0.0636 -0.5930243,0.132506 -1.2722509,0.179784 -1.9173265,0.133455 z"
       style="opacity:0.3;fill:#000000" />
    <path
       id="path6799"
       d="M 8.8942533,13.778791 C 8.3365915,13.742231 7.4770679,13.62855 7.4005106,13.581235 c -0.012766,-0.0079 0.08701,-0.05169 0.2217176,-0.09734 C 9.1325021,12.972132 9.6781574,11.881358 8.8736765,10.982238 8.598518,10.674709 8.0176166,10.34185 7.48047,10.183921 l -0.1315109,-0.03867 0.1971021,-0.04029 c 1.293259,-0.2643743 2.8893308,-0.2188223 4.0836898,0.116548 1.349657,0.378977 2.07194,1.075726 1.912302,1.844701 -0.04664,0.224674 -0.16367,0.423235 -0.37169,0.630646 -0.218302,0.21766 -0.379323,0.328474 -0.714261,0.491548 -0.565212,0.275185 -1.389133,0.482073 -2.224787,0.558643 -0.2670125,0.02447 -1.1340933,0.04505 -1.3370617,0.03174 z"
       style="opacity:0.55;fill:#000000" />
    <path
       inkscape:connector-curvature="0"
       id="path7243"
       d="M 7.9263378,9.0413689 C 7.7317664,8.9789255 7.5760667,8.7641228 7.5289579,8.4931467 7.4980569,8.3153921 7.5172237,7.8950978 7.5658946,7.6832317 7.6208258,7.4441083 7.7085759,7.1929447 7.8163207,6.9664381 c 0.09433,-0.1983027 0.274303,-0.4926513 0.3012215,-0.4926513 0.026864,0 0.2068146,0.2941826 0.3013456,0.4926513 0.1835413,0.385339 0.2818773,0.7692922 0.298458,1.1653125 0.019568,0.4675007 -0.091981,0.756615 -0.341454,0.8849604 -0.1009339,0.051928 -0.3260985,0.064281 -0.449554,0.024655 z"
       style="opacity:0.7;fill:#000000;stroke-width:0.864459" />
    <path
       id="path7227"
       d="M 7.0530459,13.495896 C 6.6899328,13.390062 6.5039064,13.320381 6.2310822,13.188004 5.8974106,13.026102 5.7358627,12.915133 5.5160686,12.696857 5.2213396,12.404163 5.1074552,12.136328 5.1297639,11.788366 c 0.043255,-0.674543 0.7362886,-1.23416 1.9469254,-1.572118 0.293846,-0.08203 0.319899,-0.07882 0.7430859,0.09154 0.8874591,0.357264 1.3776336,0.871724 1.4187598,1.489046 0.046356,0.695898 -0.5810315,1.343777 -1.6433181,1.696989 -0.1297791,0.04315 -0.2481403,0.0778 -0.2630287,0.077 -0.014888,-8.01e-4 -0.1404987,-0.03452 -0.2791423,-0.07493 z"
       style="opacity:0.7;fill:#000000" />
    <path
       id="path90"
       d="m 11.90302,1.1816757 c -0.0998,-0.06086 -0.158378,-0.146585 -0.174745,-0.25574397 -0.02017,-0.134466 0.05554,-0.286641 0.176689,-0.355191 0.08462,-0.04788 0.10424,-0.04941 0.562871,-0.04384 0.442888,0.0054 0.479401,0.0089 0.537017,0.05162 0.162246,0.120339 0.206453,0.311047 0.110777,0.47792297 -0.08875,0.1548 -0.136782,0.166686 -0.673306,0.166592 -0.423214,-6.5e-5 -0.478551,-0.0043 -0.539303,-0.04137 z"
       style="opacity:1;fill:#000000" />
    <path
       id="path88"
       d="M 9.7068796,1.1866757 C 9.5991217,1.1335657 9.5413067,1.0377337 9.5313879,0.89577573 c -0.00704,-0.100705 6.846e-4,-0.135021 0.042735,-0.19669 0.1121046,-0.163379 0.1210719,-0.165754 0.6500931,-0.172177 0.45892,-0.0056 0.478203,-0.0041 0.562871,0.04393 0.182419,0.103401 0.23417,0.348443 0.108409,0.51332897 -0.100824,0.132187 -0.13288,0.139017 -0.649813,0.138464 -0.3850933,-4.11e-4 -0.4794687,-0.0067 -0.5388033,-0.03595 z"
       style="opacity:1;fill:#000000" />
    <path
       id="path86"
       d="M 7.4860278,1.1736357 C 7.4039948,1.1191257 7.3129115,0.96064373 7.3129115,0.87242573 c 0,-0.09967 0.091555,-0.247875 0.186314,-0.301587 0.084676,-0.04799 0.1039587,-0.0495 0.562871,-0.04393 0.5290213,0.0064 0.5379954,0.0088 0.6501001,0.172177 0.06607,0.09629 0.059499,0.283162 -0.013574,0.38577997 -0.090063,0.12648 -0.1469811,0.138263 -0.6679319,0.138263 -0.451492,0 -0.4731435,-0.002 -0.5446629,-0.0495 z"
       style="opacity:1;fill:#000000" />
    <path
       id="path84"
       d="m 5.3008878,1.1865557 c -0.040709,-0.02006 -0.09684,-0.07765 -0.1287249,-0.13205 -0.096545,-0.16474597 -0.052387,-0.35485897 0.1107219,-0.47663297 0.056987,-0.04255 0.089727,-0.04519 0.5592841,-0.04519 h 0.4987585 l 0.078535,0.0599 c 0.097689,0.07451 0.159508,0.223613 0.1407178,0.339406 -0.015881,0.09784 -0.069288,0.17488697 -0.167647,0.24182597 -0.069685,0.04743 -0.090583,0.0493 -0.5459565,0.04882 -0.3918762,-4.11e-4 -0.4859436,-0.0066 -0.5456889,-0.03608 z"
       style="opacity:1;fill:#000000" />
    <path
       id="path82"
       d="M 3.0814804,1.1737357 C 2.8557652,1.0216277 2.8704756,0.68492073 3.1081294,0.56367773 c 0.080644,-0.04114 0.1208734,-0.04387 0.5551907,-0.03768 0.4350224,0.0062 0.4726302,0.0099 0.5300618,0.05253 0.2173845,0.161239 0.2162961,0.46464997 -0.00212,0.59965497 -0.067542,0.04174 -0.1070255,0.04494 -0.5545883,0.04494 -0.4636355,0 -0.4846436,-0.0019 -0.5551633,-0.04939 z"
       style="opacity:1;fill:#000000" />
    <path
       id="path80"
       d="m 14.535251,1.2254057 c -0.361313,-0.01213 -0.400317,-0.01736 -0.463074,-0.06213 -0.140355,-0.100114 -0.184534,-0.32810097 -0.09038,-0.46643497 0.110612,-0.162523 0.117266,-0.16417 0.663058,-0.16417 0.460672,0 0.493584,0.0027 0.550495,0.04519 0.117779,0.08794 0.15091,0.155011 0.15091,0.305513 0,0.14942797 -0.03324,0.21765797 -0.147672,0.30309397 -0.06953,0.05191 -0.14488,0.05634 -0.663332,0.03893 z"
       style="opacity:1;fill:#000000" />
    <path
       id="path78"
       d="m 0.97640922,1.9693427 c -0.098503,-0.02985 -0.174547,-0.09253 -0.2197393,-0.181102 -0.040462,-0.07931 -0.043248,-0.121782 -0.037094,-0.565004 0.00616,-0.44409597 0.00997,-0.48367997 0.051846,-0.53971197 0.1103523,-0.147647 0.1206681,-0.150205 0.63547168,-0.157537 0.5285559,-0.0075 0.5763768,0.0026 0.6850382,0.145057 0.077208,0.101224 0.084121,0.296079 0.013848,0.39020397 -0.098483,0.131905 -0.145797,0.150051 -0.4220575,0.161875 l -0.2560807,0.01096 -0.010959,0.267036 c -0.012602,0.307015 -0.034918,0.356669 -0.1977181,0.439855 -0.1008168,0.05151 -0.1479806,0.05703 -0.24255448,0.02837 z"
       style="opacity:1;fill:#000000" />
    <path
       inkscape:connector-curvature="0"
       id="path76"
       d="m 14.835045,3.0879576 c -0.04006,-0.01974 -0.09677,-0.07112 -0.126034,-0.114184 -0.05236,-0.07706 -0.0532,-0.08596 -0.0532,-0.563144 0,-0.466728 0.0018,-0.48759 0.04939,-0.558143 0.152108,-0.225714 0.488819,-0.211003 0.610062,0.02665 0.04113,0.08064 0.04386,0.120874 0.03768,0.555185 -0.0062,0.435028 -0.0099,0.472633 -0.05253,0.530067 -0.113837,0.153469 -0.302834,0.203655 -0.465361,0.123567 z"
       style="opacity:1;fill:#000000" />
    <path
       id="path74"
       d="m 0.92132762,4.1416417 c -0.049416,-0.02311 -0.1135285,-0.07522 -0.1424702,-0.115802 -0.050977,-0.07147 -0.052839,-0.08834 -0.0593,-0.537425 -0.00752,-0.522753 0.00281,-0.574384 0.1350362,-0.675244 0.14932228,-0.113893 0.33962698,-0.0961 0.47599118,0.04451 l 0.075133,0.07748 0.00657,0.498077 c 0.00644,0.489001 0.00568,0.499427 -0.043835,0.572188 -0.1113107,0.163577 -0.2792315,0.214735 -0.44714538,0.13622 z"
       style="opacity:1;fill:#000000" />
    <path
       id="path72"
       d="m 0.92242762,6.3432767 c -0.087893,-0.03828 -0.1801875,-0.150119 -0.1966777,-0.238323 -0.00726,-0.03883 -0.010117,-0.267864 -0.00637,-0.508973 0.00657,-0.422589 0.00875,-0.441048 0.059622,-0.512382 0.117882,-0.165274 0.36663828,-0.19766 0.51534438,-0.06709 0.1191758,0.104636 0.1254392,0.140135 0.1180669,0.66914 -0.00616,0.440045 -0.010364,0.48515 -0.050532,0.539025 -0.098777,0.132477 -0.2894718,0.183941 -0.43947168,0.118606 z"
       style="opacity:1;fill:#000000" />
    <path
       d="M 4.4938643,3.6614448 3.6774179,2.8449968 2.9058763,3.6165338 c -0.7644294,0.764431 -0.7711583,0.771951 -0.7308877,0.816448 0.040236,0.04446 0.056158,0.04491 1.5879812,0.04491 H 5.3103107 Z M 3.6587582,6.8704404 C 3.6225947,6.8476304 3.0979612,6.3322974 2.4929166,5.7252504 1.7555533,4.9854544 1.3879772,4.6016044 1.3781132,4.5611054 1.3368362,4.3916654 1.3306002,4.3993224 2.3063288,3.4215764 L 3.219437,2.5065724 3.0704091,2.3563904 c -0.2152899,-0.216948 -0.2362637,-0.379938 -0.067925,-0.527743 0.061648,-0.05413 0.096621,-0.06756 0.1759092,-0.06756 0.054426,0 0.1255966,0.01413 0.1581526,0.03139 0.032549,0.01727 0.6578078,0.631274 1.3894553,1.364463 0.9124373,0.914359 1.3349602,1.352375 1.3452144,1.394536 0.028045,0.115279 -0.00472,0.218228 -0.093752,0.294861 -0.045624,0.03926 -0.094191,0.08365 -0.1079153,0.09864 -0.2121069,0.231605 -1.898201,1.91297 -1.9411892,1.935741 -0.081684,0.04327 -0.1913109,0.03909 -0.2696005,-0.01028 z"
       style="opacity:1"
       id="path70" />
    <path
       id="path66"
       d="m 0.89041242,8.5166977 c -0.1602062,-0.109038 -0.1634303,-0.121126 -0.1708437,-0.641204 -0.00623,-0.434311 -0.00349,-0.474547 0.037676,-0.555186 0.121243,-0.237654 0.45795388,-0.252365 0.61005528,-0.02665 0.047547,0.07055 0.049395,0.09142 0.049395,0.558144 0,0.477818 -7.529e-4,0.48599 -0.053461,0.563522 -0.1019532,0.150044 -0.3295987,0.198853 -0.47282178,0.101376 z"
       style="opacity:1;fill:#000000" />
    <path
       sodipodi:nodetypes="cccccccccccsccccccccccccccc"
       inkscape:connector-curvature="0"
       d="M 11,9 C 10.157117,8.2084867 9.2025942,7.244733 8.4698491,6.4370673 8.3231344,6.2848478 8.1865381,6.1235139 8.3002224,5.9443459 8.3259124,5.9038539 9.0927769,5.1181412 10.042746,4.1727265 11.923773,2.3007237 11.83247,2.381203 12.019033,2.4306779 c 0.09311,0.024694 0.166475,0.083309 0.210732,0.1683649 0.031,0.059565 0.03678,0.2084312 0.0107,0.2749772 -0.0085,0.021912 -0.111091,0.13446 -0.227784,0.2501163 l -0.212176,0.2102845 0.687422,0.6863275 1.52147,1.4985628 c 0,0 0.247359,0.2692467 0.247359,0.3884869 0,0.056081 -0.0134,0.1272475 -0.02976,0.1581532 -0.01637,0.030912 -0.270202,0.294849 -0.270202,0.294849 0,0 -0.478911,0.4891206 -1.697473,1.6955377 -0.50949,0.5087013 -0.952711,0.9347843 -0.984926,0.9468483 -0.07656,0.028672 -0.22176,0.026982 -0.274381,-0.00323 z m 2.417987,-3.0225439 0.0584,-0.051049 -1.066511,-1.0674566 -1.066507,-1.0674566 -1.11851,1.1185056 -1.1185038,1.1185066 h 2.1266238 2.126625 z"
       style="opacity:1"
       id="path62" />
    <path
       inkscape:connector-curvature="0"
       id="path60"
       d="m 14.882716,9.6923309 c -0.07673,-0.02223 -0.19754,-0.1470225 -0.216865,-0.2240165 -0.0069,-0.02744 -0.0095,-0.26471 -0.0058,-0.527273 l 0.0067,-0.477386 0.09076,-0.08462 c 0.147036,-0.137088 0.336047,-0.144435 0.479332,-0.01863 0.112207,0.09852 0.124371,0.169165 0.116431,0.676378 -0.0068,0.433675 -0.0089,0.451913 -0.05966,0.523132 -0.05704,0.07998 -0.199416,0.1562945 -0.287117,0.1539015 -0.03014,-8.22e-4 -0.08585,-0.01049 -0.12381,-0.02149 z"
       style="opacity:1;fill:#000000" />
    <path
       id="path58"
       d="m 0.93373592,10.739944 c -0.069199,-0.03067 -0.1261989,-0.08296 -0.1715419,-0.157373 -0.043803,-0.07189 -0.046753,-0.105797 -0.046828,-0.539256 0,-0.4448773 0.00185,-0.4653623 0.049758,-0.5364953 0.1200793,-0.178186 0.33968168,-0.229715 0.50376908,-0.11821 0.1410943,0.09587 0.1478095,0.125947 0.1477205,0.6613353 0,0.533285 -0.00968,0.573444 -0.1586318,0.664259 -0.071635,0.04368 -0.2515491,0.05796 -0.32424588,0.02574 z"
       style="opacity:1;fill:#000000" />
    <path
       inkscape:connector-curvature="0"
       id="path56"
       d="m 14.875022,11.892975 c -0.03013,-0.01267 -0.07792,-0.04464 -0.106198,-0.07104 -0.106505,-0.09944 -0.113001,-0.135975 -0.113001,-0.635486 0,-0.450399 0.002,-0.471998 0.04931,-0.541571 0.06694,-0.09835 0.14399,-0.151766 0.241829,-0.167642 0.115794,-0.01879 0.264891,0.04303 0.339408,0.140717 l 0.0599,0.07853 v 0.498758 c 0,0.469555 -0.0027,0.502302 -0.04519,0.559288 -0.02486,0.03329 -0.07097,0.07978 -0.10248,0.103304 -0.06657,0.0497 -0.243294,0.0689 -0.323575,0.03514 z"
       style="opacity:1;fill:#000000" />
    <path
       id="path54"
       d="m 0.97642292,12.950802 c -0.098517,-0.02985 -0.1745538,-0.09253 -0.2197598,-0.181143 -0.040414,-0.07922 -0.043255,-0.121699 -0.037094,-0.554046 0.00623,-0.435028 0.00993,-0.472633 0.05253,-0.530066 0.1203394,-0.162244 0.31104798,-0.206448 0.47792148,-0.110777 0.1548943,0.0888 0.1666749,0.13655 0.1666749,0.675548 0,0.45529 -0.00192,0.476756 -0.049491,0.548319 -0.052257,0.07863 -0.2141399,0.174405 -0.2894171,0.17123 -0.024574,-0.001 -0.070184,-0.0096 -0.10136438,-0.01907 z"
       style="opacity:1;fill:#000000" />
    <path
       inkscape:connector-curvature="0"
       id="path52"
       d="m 14.827837,14.061995 c -0.04403,-0.02326 -0.100741,-0.07577 -0.126034,-0.116693 -0.04304,-0.06965 -0.04598,-0.105168 -0.04598,-0.556271 0,-0.463627 0.0018,-0.484691 0.04949,-0.55635 0.06993,-0.105228 0.221882,-0.179325 0.333076,-0.162422 0.122715,0.01865 0.225291,0.08914 0.276884,0.19026 0.04113,0.08064 0.04386,0.120874 0.03768,0.555186 -0.0062,0.435027 -0.0099,0.472633 -0.05253,0.530066 -0.116924,0.157633 -0.306127,0.204165 -0.472583,0.116224 z"
       style="opacity:1;fill:#000000" />
    <path
       id="path50"
       d="m 13.388453,15.127349 c -0.04003,-0.02007 -0.09921,-0.07115 -0.131518,-0.113501 -0.04797,-0.0629 -0.05873,-0.100114 -0.05873,-0.203139 0,-0.141436 0.04032,-0.214934 0.164169,-0.299222 0.06965,-0.0474 0.09093,-0.04932 0.548202,-0.04932 0.45727,0 0.478545,0.0019 0.548195,0.04932 0.124467,0.08471 0.164176,0.157604 0.164176,0.301388 0,0.138586 -0.03586,0.20861 -0.150855,0.294553 -0.0561,0.04193 -0.09475,0.0456 -0.535661,0.05081 -0.407163,0.0048 -0.485616,4.11e-4 -0.547976,-0.03088 z"
       style="opacity:1;fill:#000000" />
    <path
       id="path48"
       d="m 11.203566,15.132549 c -0.03617,-0.01614 -0.09472,-0.06013 -0.130114,-0.09776 -0.05271,-0.05602 -0.06606,-0.09199 -0.07379,-0.198714 -0.01105,-0.15277 0.03793,-0.254552 0.158275,-0.328931 0.06754,-0.04174 0.107026,-0.04494 0.554589,-0.04494 0.463635,0 0.484643,0.0019 0.555163,0.04939 0.22371,0.150759 0.213366,0.472716 -0.01939,0.603535 -0.08134,0.04571 -0.111769,0.04843 -0.532621,0.04763 -0.323979,-6.16e-4 -0.464389,-0.0089 -0.512114,-0.03021 z"
       style="opacity:1;fill:#000000" />
    <path
       id="path46"
       d="M 9.0226149,15.148399 C 8.8725328,15.089259 8.7704222,14.926414 8.787638,14.773663 c 0.012534,-0.111175 0.064133,-0.190778 0.1706452,-0.263254 0.072724,-0.04948 0.083368,-0.0503 0.5678818,-0.04384 0.4536962,0.0061 0.49854,0.01015 0.552563,0.05043 0.201181,0.150004 0.195199,0.435322 -0.01237,0.590461 C 10.010108,15.1495 9.972715,15.15296 9.5306897,15.157 9.2693313,15.1594 9.0407,15.1555 9.0226149,15.148399 Z"
       style="opacity:1;fill:#000000" />
    <path
       id="path44"
       d="m 6.8088001,15.138999 c -0.2641924,-0.105316 -0.2979874,-0.48262 -0.056597,-0.63181 0.067542,-0.04174 0.1070254,-0.04494 0.5545883,-0.04494 0.4636286,0 0.4846914,0.0019 0.5563543,0.0495 0.1052252,0.06993 0.179325,0.22188 0.1624172,0.333077 -0.018523,0.121857 -0.088968,0.225203 -0.1879157,0.275682 -0.076229,0.03889 -0.1285401,0.04302 -0.5293225,0.04177 -0.2446081,-7.66e-4 -0.4693924,-0.01122 -0.4995251,-0.02323 z"
       style="opacity:1;fill:#000000" />
    <path
       id="path42"
       d="M 4.562087,15.114509 C 4.4444651,15.047839 4.3691674,14.903935 4.3829058,14.77206 c 0.011343,-0.10886 0.063106,-0.189136 0.1679961,-0.260525 0.069589,-0.04736 0.091131,-0.04932 0.5426501,-0.04932 0.540713,0 0.5852277,0.0108 0.674832,0.163692 0.1004403,0.171399 0.059129,0.358123 -0.1064094,0.480906 -0.057616,0.04274 -0.094136,0.04625 -0.5370166,0.05162 -0.4589191,0.0056 -0.4782021,0.0041 -0.562871,-0.04393 z"
       style="opacity:1;fill:#000000" />
    <path
       id="path40"
       d="m 2.3910071,15.132799 c -0.079206,-0.0345 -0.1797152,-0.14781 -0.1988956,-0.224232 -0.022158,-0.0883 0.00438,-0.240198 0.05416,-0.310129 0.088475,-0.124247 0.1470428,-0.136219 0.6664739,-0.136219 0.4514989,0 0.4731436,0.002 0.5446627,0.0495 0.082034,0.05451 0.1731163,0.212992 0.1731163,0.30121 0,0.100081 -0.091521,0.24791 -0.1863139,0.300937 -0.08293,0.04639 -0.1120088,0.04902 -0.5370166,0.04855 -0.3244921,-3.42e-4 -0.4679137,-0.0086 -0.5161864,-0.02961 z"
       style="opacity:1;fill:#000000" />
    <path
       id="path5957"
       d="m 0.92134602,15.123099 c -0.049416,-0.0231 -0.1135284,-0.07522 -0.1424701,-0.115801 -0.050977,-0.07148 -0.052839,-0.08834 -0.0593,-0.537426 -0.00752,-0.522753 0.00281,-0.574384 0.1350362,-0.675244 0.14932218,-0.113893 0.33962698,-0.0961 0.47599118,0.04451 l 0.075133,0.07748 0.00657,0.498077 c 0.00643,0.489 0.00568,0.499426 -0.043837,0.572187 -0.1113106,0.163577 -0.2792314,0.214735 -0.44714528,0.13622 z"
       style="opacity:1;fill:#000000" />
    <path
       style="opacity:1;fill:#000000"
       d="m 14.882716,7.496276 c -0.07673,-0.02223 -0.19754,-0.1470223 -0.216865,-0.2240163 -0.0069,-0.02744 -0.0095,-0.26471 -0.0058,-0.527273 l 0.0067,-0.477386 0.09076,-0.08462 c 0.147036,-0.137088 0.336047,-0.144435 0.479332,-0.01863 0.112207,0.09852 0.124371,0.169165 0.116431,0.676378 -0.0068,0.433675 -0.0089,0.451913 -0.05966,0.523132 -0.05704,0.07998 -0.199416,0.1562943 -0.287117,0.1539013 -0.03014,-8.22e-4 -0.08585,-0.01049 -0.12381,-0.02149 z"
       id="path94"
       inkscape:connector-curvature="0" />
    <path
       inkscape:connector-curvature="0"
       id="path96"
       d="m 14.882716,5.3002205 c -0.07673,-0.02223 -0.19754,-0.1470223 -0.216865,-0.2240163 -0.0069,-0.02744 -0.0095,-0.26471 -0.0058,-0.527273 l 0.0067,-0.477386 0.09076,-0.08462 c 0.147036,-0.137088 0.336047,-0.144435 0.479332,-0.01863 0.112207,0.09852 0.124371,0.169165 0.116431,0.676378 -0.0068,0.433675 -0.0089,0.451913 -0.05966,0.523132 -0.05704,0.07998 -0.199416,0.1562943 -0.287117,0.1539013 -0.03014,-8.22e-4 -0.08585,-0.01049 -0.12381,-0.02149 z"
       style="opacity:1;fill:#000000" />
  </g>
</svg>
